Year 1/COMP12111 Fundamentals of Computer Engineering/Exercise4/mu0_tb_results.vcd
$date
	Thu Dec 17 13:24:04 2020
$end
$version
	Icarus Verilog
$end
$timescale
	100ps
$end
$scope module mu0_tb $end
$var wire 1 ! Wr $end
$var wire 1 " Rd $end
$var wire 1 # Halted $end
$var wire 16 $ Data_out [15:0] $end
$var wire 16 % Data_in [15:0] $end
$var wire 12 & Address [11:0] $end
$var reg 1 ' Clk $end
$var reg 1 ( Reset $end
$scope module dut $end
$var wire 1 ' Clk $end
$var wire 1 ( Reset $end
$var wire 1 ) fetch $end
$var wire 1 * Z $end
$var wire 1 + Y_sel $end
$var wire 1 , X_sel $end
$var wire 1 ! Wr $end
$var wire 1 " Rd $end
$var wire 1 - PC_En $end
$var wire 1 . N $end
$var wire 2 / M [1:0] $end
$var wire 1 0 IR_En $end
$var wire 1 # Halted $end
$var wire 4 1 F [3:0] $end
$var wire 16 2 Data_out [15:0] $end
$var wire 16 3 Data_in [15:0] $end
$var wire 1 4 Addr_sel $end
$var wire 12 5 Addr [11:0] $end
$var wire 1 6 Acc_En $end
$scope module control $end
$var wire 1 ' Clk $end
$var wire 1 ( Reset $end
$var wire 1 7 state $end
$var wire 1 ) fetch $end
$var wire 1 * Z $end
$var wire 1 + Y_sel $end
$var wire 1 , X_sel $end
$var wire 1 ! Wr $end
$var wire 1 " Rd $end
$var wire 1 - PC_En $end
$var wire 1 . N $end
$var wire 2 8 M [1:0] $end
$var wire 1 0 IR_En $end
$var wire 1 # Halted $end
$var wire 4 9 F [3:0] $end
$var wire 1 4 Addr_sel $end
$var wire 1 6 Acc_En $end
$scope module decode $end
$var wire 1 7 state $end
$var wire 1 * Z $end
$var wire 1 . N $end
$var wire 4 : F [3:0] $end
$var reg 1 6 Acc_En $end
$var reg 1 4 Addr_sel $end
$var reg 1 # Halted $end
$var reg 1 0 IR_En $end
$var reg 2 ; M [1:0] $end
$var reg 1 - PC_En $end
$var reg 1 " Rd $end
$var reg 1 ! Wr $end
$var reg 1 , X_sel $end
$var reg 1 + Y_sel $end
$var reg 1 ) fetch $end
$upscope $end
$scope module fsm $end
$var wire 1 ' Clk $end
$var wire 1 # Halted $end
$var wire 1 ( Reset $end
$var reg 1 < next_state $end
$var reg 1 7 state $end
$upscope $end
$upscope $end
$scope module datapath $end
$var wire 1 6 Acc_En $end
$var wire 1 4 Addr_sel $end
$var wire 1 ' Clk $end
$var wire 16 = Data_out [15:0] $end
$var wire 4 > F [3:0] $end
$var wire 1 0 IR_En $end
$var wire 2 ? M [1:0] $end
$var wire 1 - PC_En $end
$var wire 1 ( Reset $end
$var wire 1 , X_sel $end
$var wire 1 + Y_sel $end
$var wire 1 * Z $end
$var wire 16 @ Y [15:0] $end
$var wire 16 A X [15:0] $end
$var wire 12 B PC [11:0] $end
$var wire 1 . N $end
$var wire 16 C IR [15:0] $end
$var wire 16 D Data_in [15:0] $end
$var wire 12 E Address [11:0] $end
$var wire 16 F Acc [15:0] $end
$var wire 16 G ALU [15:0] $end
$scope module ACCReg $end
$var wire 1 ' Clk $end
$var wire 1 6 En $end
$var wire 1 ( Reset $end
$var wire 16 H D [15:0] $end
$var reg 16 I Q [15:0] $end
$upscope $end
$scope module AddrMux $end
$var wire 12 J B [11:0] $end
$var wire 1 4 S $end
$var wire 12 K A [11:0] $end
$var reg 12 L Q [11:0] $end
$upscope $end
$scope module FLAGS $end
$var wire 16 M Acc [15:0] $end
$var reg 1 . N $end
$var reg 1 * Z $end
$upscope $end
$scope module IRReg $end
$var wire 1 ' Clk $end
$var wire 1 0 En $end
$var wire 1 ( Reset $end
$var wire 16 N D [15:0] $end
$var reg 16 O Q [15:0] $end
$upscope $end
$scope module PCReg $end
$var wire 1 ' Clk $end
$var wire 12 P D [11:0] $end
$var wire 1 - En $end
$var wire 1 ( Reset $end
$var reg 12 Q Q [11:0] $end
$upscope $end
$scope module XMux $end
$var wire 16 R A [15:0] $end
$var wire 16 S B [15:0] $end
$var wire 1 , S $end
$var reg 16 T Q [15:0] $end
$upscope $end
$scope module YMux $end
$var wire 16 U B [15:0] $end
$var wire 1 + S $end
$var wire 16 V A [15:0] $end
$var reg 16 W Q [15:0] $end
$upscope $end
$scope module mu0_ALU $end
$var wire 2 X M [1:0] $end
$var wire 16 Y X [15:0] $end
$var wire 16 Z Y [15:0] $end
$var reg 16 [ Q [15:0] $end
$upscope $end
$upscope $end
$upscope $end
$scope module memory $end
$var wire 12 \ Addr [11:0] $end
$var wire 1 ' Clk $end
$var wire 16 ] Data_in [15:0] $end
$var wire 1 " Rd $end
$var wire 1 ! Wr $end
$var reg 16 ^ Data_out [15:0] $end
$upscope $end
$upscope $end
$enddefinitions $end
#0
$dumpvars
bx ^
b0 ]
b0 \
b1 [
bx Z
b0 Y
b10 X
bx W
bx V
b0 U
b0 T
b0 S
b0 R
b0 Q
b1 P
b0 O
bx N
b0 M
b0 L
b0 K
b0 J
b0 I
b1 H
b1 G
b0 F
b0 E
bx D
b0 C
b0 B
b0 A
bx @
b10 ?
b0 >
b0 =
1<
b10 ;
b0 :
b0 9
b10 8
07
06
b0 5
04
bx 3
b0 2
b0 1
10
b10 /
0.
1-
1,
x+
1*
1)
1(
0'
b0 &
bx %
b0 $
0#
1"
0!
$end
#500
1'
#1000
b1000000100010 @
b1000000100010 W
b1000000100010 Z
b1000000100010 %
b1000000100010 3
b1000000100010 D
b1000000100010 N
b1000000100010 V
b1000000100010 ^
0'
0(
#1500
1!
0"
b100010 P
b1 1
b1 9
b1 :
b1 >
b1000000100010 G
b1000000100010 H
b1000000100010 [
b100010 &
b100010 5
b100010 E
b100010 L
b100010 \
b100010 J
14
x+
0,
bx /
bx 8
bx ;
bx ?
bx X
06
00
0-
0)
0<
b1 S
b1 B
b1 K
b1 Q
b1000000100010 C
b1000000100010 O
b1000000100010 U
17
1'
#2000
0'
#2500
b1 $
b1 2
b1 =
b1 ]
b10 P
b1 &
b1 5
b1 E
b1 L
b1 \
b1 A
b1 T
b1 Y
b10 G
b10 H
b10 [
0!
1"
04
1,
b10 /
b10 8
b10 ;
b10 ?
b10 X
10
1-
1)
1<
07
1'
#3000
b11100 @
b11100 W
b11100 Z
b11100 %
b11100 3
b11100 D
b11100 N
b11100 V
b11100 ^
0'
#3500
b11100 P
b11100 G
b11100 H
b11100 [
0+
16
b0 $
b0 2
b0 =
b0 ]
b0 1
b0 9
b0 :
b0 >
b0 A
b0 T
b0 Y
b11100 &
b11100 5
b11100 E
b11100 L
b11100 \
b11100 J
0!
1"
14
x,
b0 /
b0 8
b0 ;
b0 ?
b0 X
00
0-
0)
0<
b10 S
b10 B
b10 K
b10 Q
b11100 C
b11100 O
b11100 U
17
1'
#4000
b0 P
b1000000000000000 G
b1000000000000000 H
b1000000000000000 [
b1000000000000000 @
b1000000000000000 W
b1000000000000000 Z
b1000000000000000 %
b1000000000000000 3
b1000000000000000 D
b1000000000000000 N
b1000000000000000 V
b1000000000000000 ^
0'
#4500
b11 P
b10 &
b10 5
b10 E
b10 L
b10 \
b11 G
b11 H
b11 [
b10 $
b10 2
b10 =
b10 ]
04
x+
1,
b10 /
b10 8
b10 ;
b10 ?
b10 X
06
10
1-
1)
1<
1.
0*
b10 A
b10 T
b10 Y
07
b1000000000000000 F
b1000000000000000 I
b1000000000000000 M
b1000000000000000 R
1'
#5000
b1000000100011 @
b1000000100011 W
b1000000100011 Z
b1000000100011 %
b1000000100011 3
b1000000100011 D
b1000000100011 N
b1000000100011 V
b1000000100011 ^
0'
#5500
1!
0"
b100011 P
b1000000000000000 $
b1000000000000000 2
b1000000000000000 =
b1000000000000000 ]
b1 1
b1 9
b1 :
b1 >
b1000000100011 G
b1000000100011 H
b1000000100011 [
b1000000000000000 A
b1000000000000000 T
b1000000000000000 Y
b100011 &
b100011 5
b100011 E
b100011 L
b100011 \
b100011 J
14
x+
0,
bx /
bx 8
bx ;
bx ?
bx X
06
00
0-
0)
0<
b11 S
b11 B
b11 K
b11 Q
b1000000100011 C
b1000000100011 O
b1000000100011 U
17
1'
#6000
0'
#6500
b11 $
b11 2
b11 =
b11 ]
b100 P
b11 &
b11 5
b11 E
b11 L
b11 \
b11 A
b11 T
b11 Y
b100 G
b100 H
b100 [
0!
1"
04
1,
b10 /
b10 8
b10 ;
b10 ?
b10 X
10
1-
1)
1<
07
1'
#7000
b10000000011100 @
b10000000011100 W
b10000000011100 Z
b10000000011100 %
b10000000011100 3
b10000000011100 D
b10000000011100 N
b10000000011100 V
b10000000011100 ^
0'
#7500
b11100 P
b1010000000011100 G
b1010000000011100 H
b1010000000011100 [
0+
16
b1000000000000000 $
b1000000000000000 2
b1000000000000000 =
b1000000000000000 ]
b10 1
b10 9
b10 :
b10 >
b1000000000000000 A
b1000000000000000 T
b1000000000000000 Y
b11100 &
b11100 5
b11100 E
b11100 L
b11100 \
b11100 J
0!
1"
14
0,
b1 /
b1 8
b1 ;
b1 ?
b1 X
00
0-
0)
0<
b100 S
b100 B
b100 K
b100 Q
b10000000011100 C
b10000000011100 O
b10000000011100 U
17
1'
#8000
b0 P
b0 G
b0 H
b0 [
b1000000000000000 @
b1000000000000000 W
b1000000000000000 Z
b1000000000000000 %
b1000000000000000 3
b1000000000000000 D
b1000000000000000 N
b1000000000000000 V
b1000000000000000 ^
0'
#8500
b101 P
b100 &
b100 5
b100 E
b100 L
b100 \
b101 G
b101 H
b101 [
b100 $
b100 2
b100 =
b100 ]
04
x+
1,
b10 /
b10 8
b10 ;
b10 ?
b10 X
06
10
1-
1)
1<
0.
1*
b100 A
b100 T
b100 Y
07
b0 F
b0 I
b0 M
b0 R
1'
#9000
b1000000100100 @
b1000000100100 W
b1000000100100 Z
b1000000100100 %
b1000000100100 3
b1000000100100 D
b1000000100100 N
b1000000100100 V
b1000000100100 ^
0'
#9500
1!
0"
b100100 P
b0 $
b0 2
b0 =
b0 ]
b1 1
b1 9
b1 :
b1 >
b1000000100100 G
b1000000100100 H
b1000000100100 [
b0 A
b0 T
b0 Y
b100100 &
b100100 5
b100100 E
b100100 L
b100100 \
b100100 J
14
x+
0,
bx /
bx 8
bx ;
bx ?
bx X
06
00
0-
0)
0<
b101 S
b101 B
b101 K
b101 Q
b1000000100100 C
b1000000100100 O
b1000000100100 U
17
1'
#10000
0'
#10500
b101 $
b101 2
b101 =
b101 ]
b110 P
b101 &
b101 5
b101 E
b101 L
b101 \
b101 A
b101 T
b101 Y
b110 G
b110 H
b110 [
0!
1"
04
1,
b10 /
b10 8
b10 ;
b10 ?
b10 X
10
1-
1)
1<
07
1'
#11000
b11000000011011 @
b11000000011011 W
b11000000011011 Z
b11000000011011 %
b11000000011011 3
b11000000011011 D
b11000000011011 N
b11000000011011 V
b11000000011011 ^
0'
#11500
b111111100101 P
b1100111111100101 G
b1100111111100101 H
b1100111111100101 [
0+
16
b0 $
b0 2
b0 =
b0 ]
b11 1
b11 9
b11 :
b11 >
b0 A
b0 T
b0 Y
b11011 &
b11011 5
b11011 E
b11011 L
b11011 \
b11011 J
0!
1"
14
0,
b11 /
b11 8
b11 ;
b11 ?
b11 X
00
0-
0)
0<
b110 S
b110 B
b110 K
b110 Q
b11000000011011 C
b11000000011011 O
b11000000011011 U
17
1'
#12000
b111111111111 P
b1111111111111111 G
b1111111111111111 H
b1111111111111111 [
b1 @
b1 W
b1 Z
b1 %
b1 3
b1 D
b1 N
b1 V
b1 ^
0'
#12500
b111 P
b110 &
b110 5
b110 E
b110 L
b110 \
b111 G
b111 H
b111 [
b110 $
b110 2
b110 =
b110 ]
04
x+
1,
b10 /
b10 8
b10 ;
b10 ?
b10 X
06
10
1-
1)
1<
1.
0*
b110 A
b110 T
b110 Y
07
b1111111111111111 F
b1111111111111111 I
b1111111111111111 M
b1111111111111111 R
1'
#13000
b1000000100101 @
b1000000100101 W
b1000000100101 Z
b1000000100101 %
b1000000100101 3
b1000000100101 D
b1000000100101 N
b1000000100101 V
b1000000100101 ^
0'
#13500
1!
0"
b111111011010 P
b1111111111111111 $
b1111111111111111 2
b1111111111111111 =
b1111111111111111 ]
b1 1
b1 9
b1 :
b1 >
b1110111111011010 G
b1110111111011010 H
b1110111111011010 [
b1111111111111111 A
b1111111111111111 T
b1111111111111111 Y
b100101 &
b100101 5
b100101 E
b100101 L
b100101 \
b100101 J
14
x+
0,
bx /
bx 8
bx ;
bx ?
bx X
06
00
0-
0)
0<
b111 S
b111 B
b111 K
b111 Q
b1000000100101 C
b1000000100101 O
b1000000100101 U
17
1'
#14000
0'
#14500
b111 $
b111 2
b111 =
b111 ]
b1000 P
b111 &
b111 5
b111 E
b111 L
b111 \
b111 A
b111 T
b111 Y
b1000 G
b1000 H
b1000 [
0!
1"
04
1,
b10 /
b10 8
b10 ;
b10 ?
b10 X
10
1-
1)
1<
07
1'
#15000
b100000000001010 @
b100000000001010 W
b100000000001010 Z
b100000000001010 %
b100000000001010 3
b100000000001010 D
b100000000001010 N
b100000000001010 V
b100000000001010 ^
0'
#15500
b1010 P
b100000000001010 G
b100000000001010 H
b100000000001010 [
1+
b1111111111111111 $
b1111111111111111 2
b1111111111111111 =
b1111111111111111 ]
b100 1
b100 9
b100 :
b100 >
b1111111111111111 A
b1111111111111111 T
b1111111111111111 Y
b1000 &
b1000 5
b1000 E
b1000 L
b1000 \
b1010 J
0!
0"
x4
x,
b0 /
b0 8
b0 ;
b0 ?
b0 X
00
1-
0)
0<
b1000 S
b1000 B
b1000 K
b1000 Q
b100000000001010 C
b100000000001010 O
b100000000001010 U
17
1'
#16000
0'
#16500
b1010 $
b1010 2
b1010 =
b1010 ]
b1011 P
b1010 A
b1010 T
b1010 Y
b1011 G
b1011 H
b1011 [
1"
04
x+
1,
b10 /
b10 8
b10 ;
b10 ?
b10 X
10
1)
1<
b1010 &
b1010 5
b1010 E
b1010 L
b1010 \
07
b1010 S
b1010 B
b1010 K
b1010 Q
1'
#17000
b11011 @
b11011 W
b11011 Z
b11011 %
b11011 3
b11011 D
b11011 N
b11011 V
b11011 ^
0'
#17500
16
0-
b11011 P
b1111111111111111 $
b1111111111111111 2
b1111111111111111 =
b1111111111111111 ]
b0 1
b0 9
b0 :
b0 >
b11011 G
b11011 H
b11011 [
b1111111111111111 A
b1111111111111111 T
b1111111111111111 Y
b11011 &
b11011 5
b11011 E
b11011 L
b11011 \
b11011 J
1"
14
0+
x,
b0 /
b0 8
b0 ;
b0 ?
b0 X
00
0)
0<
b1011 S
b1011 B
b1011 K
b1011 Q
b11011 C
b11011 O
b11011 U
17
1'
#18000
b1 P
b1 G
b1 H
b1 [
b1 @
b1 W
b1 Z
b1 %
b1 3
b1 D
b1 N
b1 V
b1 ^
0'
#18500
b1100 P
b1011 &
b1011 5
b1011 E
b1011 L
b1011 \
b1100 G
b1100 H
b1100 [
b1011 $
b1011 2
b1011 =
b1011 ]
04
x+
1,
b10 /
b10 8
b10 ;
b10 ?
b10 X
06
10
1-
1)
1<
0.
b1011 A
b1011 T
b1011 Y
07
b1 F
b1 I
b1 M
b1 R
1'
#19000
b110000000001111 @
b110000000001111 W
b110000000001111 Z
b110000000001111 %
b110000000001111 3
b110000000001111 D
b110000000001111 N
b110000000001111 V
b110000000001111 ^
0'
#19500
0"
b1111 P
b1 $
b1 2
b1 =
b1 ]
b110 1
b110 9
b110 :
b110 >
b110000000001111 G
b110000000001111 H
b110000000001111 [
b1 A
b1 T
b1 Y
b1100 &
b1100 5
b1100 E
b1100 L
b1100 \
b1111 J
x4
1+
x,
b0 /
b0 8
b0 ;
b0 ?
b0 X
06
00
1-
0)
0<
b1100 S
b1100 B
b1100 K
b1100 Q
b110000000001111 C
b110000000001111 O
b110000000001111 U
17
1'
#20000
0'
#20500
b1111 $
b1111 2
b1111 =
b1111 ]
b10000 P
b1111 A
b1111 T
b1111 Y
b10000 G
b10000 H
b10000 [
1"
04
x+
1,
b10 /
b10 8
b10 ;
b10 ?
b10 X
10
1)
1<
b1111 &
b1111 5
b1111 E
b1111 L
b1111 \
07
b1111 S
b1111 B
b1111 K
b1111 Q
1'
#21000
b100001 @
b100001 W
b100001 Z
b100001 %
b100001 3
b100001 D
b100001 N
b100001 V
b100001 ^
0'
#21500
16
0-
b100001 P
b1 $
b1 2
b1 =
b1 ]
b0 1
b0 9
b0 :
b0 >
b100001 G
b100001 H
b100001 [
b1 A
b1 T
b1 Y
b100001 &
b100001 5
b100001 E
b100001 L
b100001 \
b100001 J
1"
14
0+
x,
b0 /
b0 8
b0 ;
b0 ?
b0 X
00
0)
0<
b10000 S
b10000 B
b10000 K
b10000 Q
b100001 C
b100001 O
b100001 U
17
1'
#22000
b101001010101 P
b1101001010101 G
b1101001010101 H
b1101001010101 [
b1101001010101 @
b1101001010101 W
b1101001010101 Z
b1101001010101 %
b1101001010101 3
b1101001010101 D
b1101001010101 N
b1101001010101 V
b1101001010101 ^
0'
#22500
b10001 P
b10000 &
b10000 5
b10000 E
b10000 L
b10000 \
b10001 G
b10001 H
b10001 [
b10000 $
b10000 2
b10000 =
b10000 ]
04
x+
1,
b10 /
b10 8
b10 ;
b10 ?
b10 X
06
10
1-
1)
1<
b10000 A
b10000 T
b10000 Y
07
b1101001010101 F
b1101001010101 I
b1101001010101 M
b1101001010101 R
1'
#23000
b1000000100111 @
b1000000100111 W
b1000000100111 Z
b1000000100111 %
b1000000100111 3
b1000000100111 D
b1000000100111 N
b1000000100111 V
b1000000100111 ^
0'
#23500
1!
0"
b100111 P
b1101001010101 $
b1101001010101 2
b1101001010101 =
b1101001010101 ]
b1 1
b1 9
b1 :
b1 >
b1000000100111 G
b1000000100111 H
b1000000100111 [
b1101001010101 A
b1101001010101 T
b1101001010101 Y
b100111 &
b100111 5
b100111 E
b100111 L
b100111 \
b100111 J
14
x+
0,
bx /
bx 8
bx ;
bx ?
bx X
06
00
0-
0)
0<
b10001 S
b10001 B
b10001 K
b10001 Q
b1000000100111 C
b1000000100111 O
b1000000100111 U
17
1'
#24000
0'
#24500
b10001 $
b10001 2
b10001 =
b10001 ]
b10010 P
b10001 &
b10001 5
b10001 E
b10001 L
b10001 \
b10001 A
b10001 T
b10001 Y
b10010 G
b10010 H
b10010 [
0!
1"
04
1,
b10 /
b10 8
b10 ;
b10 ?
b10 X
10
1-
1)
1<
07
1'
#25000
b11101 @
b11101 W
b11101 Z
b11101 %
b11101 3
b11101 D
b11101 N
b11101 V
b11101 ^
0'
#25500
b11101 P
b11101 G
b11101 H
b11101 [
0+
16
b1101001010101 $
b1101001010101 2
b1101001010101 =
b1101001010101 ]
b0 1
b0 9
b0 :
b0 >
b1101001010101 A
b1101001010101 T
b1101001010101 Y
b11101 &
b11101 5
b11101 E
b11101 L
b11101 \
b11101 J
0!
1"
14
x,
b0 /
b0 8
b0 ;
b0 ?
b0 X
00
0-
0)
0<
b10010 S
b10010 B
b10010 K
b10010 Q
b11101 C
b11101 O
b11101 U
17
1'
#26000
b0 P
b0 G
b0 H
b0 [
b0 @
b0 W
b0 Z
b0 %
b0 3
b0 D
b0 N
b0 V
b0 ^
0'
#26500
b10011 P
b10010 &
b10010 5
b10010 E
b10010 L
b10010 \
b10011 G
b10011 H
b10011 [
b10010 $
b10010 2
b10010 =
b10010 ]
04
x+
1,
b10 /
b10 8
b10 ;
b10 ?
b10 X
06
10
1-
1)
1<
1*
b10010 A
b10010 T
b10010 Y
07
b0 F
b0 I
b0 M
b0 R
1'
#27000
b110000000010100 @
b110000000010100 W
b110000000010100 Z
b110000000010100 %
b110000000010100 3
b110000000010100 D
b110000000010100 N
b110000000010100 V
b110000000010100 ^
0'
#27500
0"
b10100 P
b0 $
b0 2
b0 =
b0 ]
b110 1
b110 9
b110 :
b110 >
b110000000010100 G
b110000000010100 H
b110000000010100 [
b0 A
b0 T
b0 Y
b10011 &
b10011 5
b10011 E
b10011 L
b10011 \
b10100 J
x4
x+
x,
bx /
bx 8
bx ;
bx ?
bx X
06
00
0-
0)
0<
b10011 S
b10011 B
b10011 K
b10011 Q
b110000000010100 C
b110000000010100 O
b110000000010100 U
17
1'
#28000
0'
#28500
b10011 $
b10011 2
b10011 =
b10011 ]
b10100 P
b10011 A
b10011 T
b10011 Y
b10100 G
b10100 H
b10100 [
1"
04
1,
b10 /
b10 8
b10 ;
b10 ?
b10 X
10
1-
1)
1<
07
1'
#29000
b100000000010111 @
b100000000010111 W
b100000000010111 Z
b100000000010111 %
b100000000010111 3
b100000000010111 D
b100000000010111 N
b100000000010111 V
b100000000010111 ^
0'
#29500
b10111 P
b100000000010111 G
b100000000010111 H
b100000000010111 [
1+
b0 $
b0 2
b0 =
b0 ]
b100 1
b100 9
b100 :
b100 >
b0 A
b0 T
b0 Y
b10100 &
b10100 5
b10100 E
b10100 L
b10100 \
b10111 J
0"
x4
x,
b0 /
b0 8
b0 ;
b0 ?
b0 X
00
1-
0)
0<
b10100 S
b10100 B
b10100 K
b10100 Q
b100000000010111 C
b100000000010111 O
b100000000010111 U
17
1'
#30000
0'
#30500
b10111 $
b10111 2
b10111 =
b10111 ]
b11000 P
b10111 A
b10111 T
b10111 Y
b11000 G
b11000 H
b11000 [
1"
04
x+
1,
b10 /
b10 8
b10 ;
b10 ?
b10 X
10
1)
1<
b10111 &
b10111 5
b10111 E
b10111 L
b10111 \
07
b10111 S
b10111 B
b10111 K
b10111 Q
1'
#31000
b100001 @
b100001 W
b100001 Z
b100001 %
b100001 3
b100001 D
b100001 N
b100001 V
b100001 ^
0'
#31500
16
0-
b100001 P
b0 $
b0 2
b0 =
b0 ]
b0 1
b0 9
b0 :
b0 >
b100001 G
b100001 H
b100001 [
b0 A
b0 T
b0 Y
b100001 &
b100001 5
b100001 E
b100001 L
b100001 \
b100001 J
1"
14
0+
x,
b0 /
b0 8
b0 ;
b0 ?
b0 X
00
0)
0<
b11000 S
b11000 B
b11000 K
b11000 Q
b100001 C
b100001 O
b100001 U
17
1'
#32000
b101001010101 P
b1101001010101 G
b1101001010101 H
b1101001010101 [
b1101001010101 @
b1101001010101 W
b1101001010101 Z
b1101001010101 %
b1101001010101 3
b1101001010101 D
b1101001010101 N
b1101001010101 V
b1101001010101 ^
0'
#32500
b11001 P
b11000 &
b11000 5
b11000 E
b11000 L
b11000 \
b11001 G
b11001 H
b11001 [
b11000 $
b11000 2
b11000 =
b11000 ]
04
x+
1,
b10 /
b10 8
b10 ;
b10 ?
b10 X
06
10
1-
1)
1<
0*
b11000 A
b11000 T
b11000 Y
07
b1101001010101 F
b1101001010101 I
b1101001010101 M
b1101001010101 R
1'
#33000
b1000000101000 @
b1000000101000 W
b1000000101000 Z
b1000000101000 %
b1000000101000 3
b1000000101000 D
b1000000101000 N
b1000000101000 V
b1000000101000 ^
0'
#33500
1!
0"
b101000 P
b1101001010101 $
b1101001010101 2
b1101001010101 =
b1101001010101 ]
b1 1
b1 9
b1 :
b1 >
b1000000101000 G
b1000000101000 H
b1000000101000 [
b1101001010101 A
b1101001010101 T
b1101001010101 Y
b101000 &
b101000 5
b101000 E
b101000 L
b101000 \
b101000 J
14
x+
0,
bx /
bx 8
bx ;
bx ?
bx X
06
00
0-
0)
0<
b11001 S
b11001 B
b11001 K
b11001 Q
b1000000101000 C
b1000000101000 O
b1000000101000 U
17
1'
#34000
0'
#34500
b11001 $
b11001 2
b11001 =
b11001 ]
b11010 P
b11001 &
b11001 5
b11001 E
b11001 L
b11001 \
b11001 A
b11001 T
b11001 Y
b11010 G
b11010 H
b11010 [
0!
1"
04
1,
b10 /
b10 8
b10 ;
b10 ?
b10 X
10
1-
1)
1<
07
1'
#35000
b111000000000000 @
b111000000000000 W
b111000000000000 Z
b111000000000000 %
b111000000000000 3
b111000000000000 D
b111000000000000 N
b111000000000000 V
b111000000000000 ^
0'
#35500
1#
b1101001010101 $
b1101001010101 2
b1101001010101 =
b1101001010101 ]
b111 1
b111 9
b111 :
b111 >
b1101001010101 A
b1101001010101 T
b1101001010101 Y
b11010 &
b11010 5
b11010 E
b11010 L
b11010 \
b0 J
0!
0"
x4
x,
bx /
bx 8
bx ;
bx ?
bx X
00
0-
0)
0<
b11010 S
b11010 B
b11010 K
b11010 Q
b111000000000000 C
b111000000000000 O
b111000000000000 U
17
1'
